\addvspace {10\p@ }
\contentsline {table}{\numberline {1.1}{\ignorespaces Comparison of some analysis/storage platforms}}{2}{table.1.1}
\addvspace {10\p@ }
\addvspace {10\p@ }
\addvspace {10\p@ }
\addvspace {10\p@ }
\addvspace {10\p@ }
\addvspace {10\p@ }
\addvspace {10\p@ }
\addvspace {10\p@ }
