BCRPATIENTBARCODE	AgeAtDiagnosis (yrs)	VITALSTATUS	TUMORSTAGE	TUMORGRADE	TUMORRESIDUALDISEASE	PRIMARYTHERAPYOUTCOMESUCCESS	PERSONNEOPLASMCANCERSTATUS	OverallSurvival(mos)	ProgressionFreeStatus	ProgressionFreeSurvival (mos)#	PlatinumFreeInterval (mos)*	PlatinumStatus
TCGA-61-1895	52.21	LIVING	IIIB	G3	No Macroscopic disease	STABLE DISEASE	TUMOR FREE	1.54	DiseaseFree	1.54	-3.7	Tooearly
TCGA-13-1510	62.21	LIVING	IIIC	G3	No Macroscopic disease		TUMOR FREE	2.56	DiseaseFree	2.56	-3.21	Tooearly
TCGA-23-1809	63.32	LIVING	IIC	G3	1-10 mm			0.52	DiseaseFree	0.52	-3.1	Tooearly
TCGA-20-1687	46.47	LIVING	IV	G3	No Macroscopic disease	COMPLETE RESPONSE	TUMOR FREE	2.62	DiseaseFree	2.62	-2.9	Tooearly
TCGA-13-1404	48.72	LIVING	IIIC	G3	1-10 mm	COMPLETE RESPONSE	TUMOR FREE	6.59	DiseaseFree	6.59	-2.5	Tooearly
TCGA-13-1506	45.84	LIVING	IIIC	G3		COMPLETE RESPONSE	TUMOR FREE	4.39	DiseaseFree	4.39	-1.8	Tooearly
TCGA-23-1116	83.46	LIVING	IIIC	G3	>20mm			4.56	DiseaseFree	4.56	-1.6	Tooearly
TCGA-20-1686	75.58	LIVING	IIIC	G3	No Macroscopic disease	COMPLETE RESPONSE	TUMOR FREE	2.92	DiseaseFree	2.92	-1.4	Tooearly
TCGA-13-1505	63.67	LIVING	IIIC	G3	1-10 mm	COMPLETE RESPONSE	TUMOR FREE	4.2	DiseaseFree	4.2	-1.37	Tooearly
TCGA-24-1846	45.3	LIVING	IIIC	G3	1-10 mm			4.36	DiseaseFree	4.36	-1.3	Tooearly
TCGA-13-1412	41.42	LIVING	IV	G3	1-10 mm	COMPLETE RESPONSE	TUMOR FREE	5.31	DiseaseFree	5.31	-1.2	Tooearly
TCGA-23-1111	63.48	LIVING	IIIC	G3	>20mm			3.21	DiseaseFree	3.21	-1	Tooearly
TCGA-24-1843	67.04	LIVING	IIIC	G3	1-10 mm	COMPLETE RESPONSE		3.48	DiseaseFree	3.48	-0.9	Tooearly
TCGA-24-1844	64.5	LIVING	IIIC	G3	1-10 mm			3.7	DiseaseFree	3.7	-0.7	Tooearly
TCGA-23-1120	60.68	LIVING	IIIC	G3	1-10 mm			4.26	DiseaseFree	4.26	-0.5	Tooearly
TCGA-13-1507	77.93	LIVING	IIIC	G3	1-10 mm	COMPLETE RESPONSE	TUMOR FREE	4.75	DiseaseFree	4.75	-0.5	Tooearly
TCGA-24-1845	42.74	LIVING	IIIC	G3	1-10 mm			3.8	DiseaseFree	3.8	-0.2	Tooearly
TCGA-24-1842	49.94	LIVING	IIIC	G3	1-10 mm	COMPLETE RESPONSE	TUMOR FREE	8.3	DiseaseFree	8.3	-0.14	Tooearly
TCGA-24-1847	45.33	LIVING	IV	G3	1-10 mm	COMPLETE RESPONSE	TUMOR FREE	10.75	DiseaseFree	10.75	0	Tooearly
TCGA-13-1512	49.75	LIVING	IIIC	G3	No Macroscopic disease			2.33	DiseaseFree	2.33	0	Tooearly
TCGA-61-2088	51.42	LIVING	IIIC	G3	No Macroscopic disease		TUMOR FREE	4.82	DiseaseFree	4.82	0	Tooearly
TCGA-13-1407	51.77	LIVING	IIIC	G3		COMPLETE RESPONSE	TUMOR FREE	6.03	DiseaseFree	6.03	0	Tooearly
TCGA-23-1121	52.01	LIVING	IIIC	G3	>20mm			6.36	DiseaseFree	6.36	0	Tooearly
TCGA-13-1509	64.34	LIVING	IV	G3	1-10 mm	COMPLETE RESPONSE	TUMOR FREE	4.07	DiseaseFree	4.07	0	Tooearly
TCGA-29-1781	69.6	LIVING	IIIC	G3		COMPLETE RESPONSE	TUMOR FREE	8.33	DiseaseFree	8.33	0	Tooearly
TCGA-13-0921	72.89	LIVING	IIIC	G3	No Macroscopic disease	COMPLETE RESPONSE	TUMOR FREE	4.62	DiseaseFree	4.62	0	Tooearly
TCGA-13-1410	57.4	LIVING	IV			COMPLETE RESPONSE	TUMOR FREE	4.69	DiseaseFree	4.69	0.5	Tooearly
TCGA-24-1426	43.69	LIVING	IIIC	G3	1-10 mm	COMPLETE RESPONSE	TUMOR FREE	5.34	DiseaseFree	5.34	0.61	Tooearly
TCGA-24-1416	34.99	LIVING	IV	G3	1-10 mm	COMPLETE RESPONSE	TUMOR FREE	6.36	DiseaseFree	6.36	0.7	Tooearly
TCGA-24-1470	54.81	LIVING	IIIB	G3	1-10 mm	COMPLETE RESPONSE	TUMOR FREE	3.41	DiseaseFree	3.41	0.7	Tooearly
TCGA-29-1784	55.37	LIVING	IIIC	G3		COMPLETE RESPONSE	TUMOR FREE	5.34	DiseaseFree	5.34	0.9	Tooearly
TCGA-24-1850	72.24	LIVING	IIIC	G3	1-10 mm	COMPLETE RESPONSE	TUMOR FREE	5.48	DiseaseFree	5.48	1	Tooearly
TCGA-09-2044	77.34	LIVING	IIB	G3	No Macroscopic disease	COMPLETE RESPONSE	TUMOR FREE	6.1	DiseaseFree	6.1	1.07	Tooearly
TCGA-24-1425	45.93	LIVING	IIIC	G3	1-10 mm	COMPLETE RESPONSE	TUMOR FREE	5.93	DiseaseFree	5.93	1.1	Tooearly
TCGA-24-1849	80.97	LIVING	IIIC	G3	1-10 mm	COMPLETE RESPONSE	TUMOR FREE	5.74	DiseaseFree	5.74	1.2	Tooearly
TCGA-24-1423	61.04	LIVING	IIIC	G3	1-10 mm	COMPLETE RESPONSE	TUMOR FREE	6.23	DiseaseFree	6.23	1.3	Tooearly
TCGA-13-0924	45.7	LIVING	IV	G3	1-10 mm	COMPLETE RESPONSE	TUMOR FREE	5.67	DiseaseFree	5.67	1.4	Tooearly
TCGA-13-0923	74.19	LIVING	IIIC	G3	No Macroscopic disease	COMPLETE RESPONSE	TUMOR FREE	6.39	DiseaseFree	6.39	1.4	Tooearly
TCGA-24-1413	51.63	LIVING	IIIC	G3	1-10 mm	COMPLETE RESPONSE	TUMOR FREE	6.3	DiseaseFree	6.3	1.6	Tooearly
TCGA-13-0802	79.66	LIVING	IIIC	G3	No Macroscopic disease	COMPLETE RESPONSE	TUMOR FREE	8.16	DiseaseFree	8.16	2	Tooearly
TCGA-29-1783	58.31	LIVING	IIIC	G3			TUMOR FREE	7.18	DiseaseFree	7.18	2.1	Tooearly
TCGA-24-1424	67.25	LIVING	IIIC	G3	1-10 mm	COMPLETE RESPONSE	TUMOR FREE	6	DiseaseFree	6	2.1	Tooearly
TCGA-13-1405	49.91	LIVING	IV	G3	1-10 mm	COMPLETE RESPONSE	TUMOR FREE	7.34	DiseaseFree	7.34	2.5	Tooearly
TCGA-24-1417	54.18	LIVING	IV	G3	1-10 mm	COMPLETE RESPONSE	TUMOR FREE	7.8	DiseaseFree	7.8	2.7	Tooearly
TCGA-24-1418	68.06	LIVING	IIIC	G3	>20mm	COMPLETE RESPONSE	TUMOR FREE	7.93	DiseaseFree	7.93	2.7	Tooearly
TCGA-13-0799	44.3	LIVING	IIIC	G3	No Macroscopic disease	COMPLETE RESPONSE	TUMOR FREE	7.77	DiseaseFree	7.77	3	Tooearly
TCGA-13-1496	65.8	DECEASED	IIIC	G3	>20mm			3.41	DiseaseFree	Missing	3.2	Missing
TCGA-61-1899	81.32	LIVING	IIIC	G3	No Macroscopic disease	COMPLETE RESPONSE	TUMOR FREE	8.69	DiseaseFree	8.69	3.2	Tooearly
TCGA-61-1900	51.95	LIVING	IIIB	G3	No Macroscopic disease	STABLE DISEASE	TUMOR FREE	5.8	DiseaseFree	5.8	3.3	Tooearly
TCGA-13-0801	46.06	LIVING	IIIC	G3	No Macroscopic disease	COMPLETE RESPONSE	TUMOR FREE	8.26	DiseaseFree	8.26	3.5	Tooearly
TCGA-13-0800	52.29	LIVING	IIIC	G3	No Macroscopic disease	COMPLETE RESPONSE	TUMOR FREE	8.1	DiseaseFree	8.1	3.5	Tooearly
TCGA-13-0768	73.97	LIVING	IIIC	G3	1-10 mm	COMPLETE RESPONSE	TUMOR FREE	8.39	DiseaseFree	8.39	3.6	Tooearly
TCGA-61-1904	60.29	LIVING	IIIC	G3	1-10 mm	COMPLETE RESPONSE	TUMOR FREE	9.18	DiseaseFree	9.18	3.8	Tooearly
TCGA-24-1419	62.08	LIVING	IIIC	G3	11-20 mm	COMPLETE RESPONSE	TUMOR FREE	7.84	DiseaseFree	7.84	3.8	Tooearly
TCGA-13-2060	51.05	LIVING	IV	G3	1-10 mm	COMPLETE RESPONSE	TUMOR FREE	8.56	DiseaseFree	8.56	3.82	Tooearly
TCGA-13-0797	49.45	LIVING	IIIC	G3	1-10 mm	COMPLETE RESPONSE	TUMOR FREE	8.69	DiseaseFree	8.69	3.9	Tooearly
TCGA-24-1469	71.06	LIVING	IIIC	G3	1-10 mm	COMPLETE RESPONSE	TUMOR FREE	9.08	DiseaseFree	9.08	4.7	Tooearly
TCGA-24-1920	74.09	LIVING	IIIC	G3	1-10 mm	COMPLETE RESPONSE	TUMOR FREE	9.77	DiseaseFree	9.77	5	Tooearly
TCGA-23-1024	52.19	LIVING	IV	G3	1-10 mm	COMPLETE RESPONSE	TUMOR FREE	15.34	DiseaseFree	15.34	5.4	Tooearly
TCGA-23-1029	46.27	LIVING	IIIC	G3	1-10 mm	COMPLETE RESPONSE	TUMOR FREE	8.79	DiseaseFree	8.79	6.2	Sensitive
TCGA-13-1403	48.48	LIVING	IIIC	G3		COMPLETE RESPONSE	TUMOR FREE	10.85	DiseaseFree	10.85	6.2	Sensitive
TCGA-13-1504	68.52	LIVING	IIIC	G3		COMPLETE RESPONSE	TUMOR FREE	16.52	DiseaseFree	16.52	7.3	Sensitive
TCGA-09-2056	62.64	LIVING	IIIC	G3	No Macroscopic disease	COMPLETE RESPONSE	TUMOR FREE	12.43	DiseaseFree	12.43	7.6	Sensitive
TCGA-13-0919	52.98	LIVING	IIIC	G3	No Macroscopic disease	COMPLETE RESPONSE	TUMOR FREE	14.85	DiseaseFree	14.85	9.6	Sensitive
TCGA-29-1778	77.11	LIVING	IIIC	G3	No Macroscopic disease	COMPLETE RESPONSE	TUMOR FREE	14.89	DiseaseFree	14.89	10.8	Sensitive
TCGA-20-1685	45.88	LIVING	IIIC	G3	1-10 mm	COMPLETE RESPONSE	TUMOR FREE	16.62	DiseaseFree	16.62	12	Sensitive
TCGA-20-1684	51.38	LIVING	IIIC	G3	1-10 mm	COMPLETE RESPONSE	TUMOR FREE	19.02	DiseaseFree	19.02	15.1	Sensitive
TCGA-13-0916	49.83	LIVING	IIIC	G3	No Macroscopic disease	COMPLETE RESPONSE	TUMOR FREE	21.08	DiseaseFree	21.08	15.8	Sensitive
TCGA-29-1769	40.42	LIVING	IIIC	G3	1-10 mm	COMPLETE RESPONSE	TUMOR FREE	22.92	DiseaseFree	22.92	18	Sensitive
TCGA-20-1682	56.39	LIVING	IIIC		11-20 mm	COMPLETE RESPONSE	TUMOR FREE	27.41	DiseaseFree	27.41	22.8	Sensitive
TCGA-13-0910	58.91	LIVING	IIIC	G3	1-10 mm	COMPLETE RESPONSE	TUMOR FREE	36.03	DiseaseFree	36.03	27.6	Sensitive
TCGA-13-0762	65.64	LIVING	IIIC	G3	No Macroscopic disease	COMPLETE RESPONSE	TUMOR FREE	32.16	DiseaseFree	32.16	27.6	Sensitive
TCGA-29-1711	45.16	LIVING	IIIC	G2	No Macroscopic disease	COMPLETE RESPONSE	TUMOR FREE	34.52	DiseaseFree	34.52	30.1	Sensitive
TCGA-61-1910	56.92	LIVING	IIC	G3	1-10 mm	COMPLETE RESPONSE	TUMOR FREE	37.05	DiseaseFree	37.05	31.7	Sensitive
TCGA-09-2053	72.42	LIVING	IIIC	G3	No Macroscopic disease	COMPLETE RESPONSE	TUMOR FREE	39.64	DiseaseFree	39.64	35.3	Sensitive
TCGA-61-1737	42.55	LIVING	IV	G3	1-10 mm	COMPLETE RESPONSE	TUMOR FREE	44.23	DiseaseFree	44.23	39	Sensitive
TCGA-13-0906	50.36	LIVING	IIIC	G3	1-10 mm	COMPLETE RESPONSE	TUMOR FREE	44.82	DiseaseFree	44.82	40.1	Sensitive
TCGA-29-2428	58.61	LIVING	IIIC	G3	>20mm	COMPLETE RESPONSE	TUMOR FREE	44.98	DiseaseFree	44.98	40.28	Sensitive
TCGA-13-0905	51.39	LIVING	IIIC	G3		COMPLETE RESPONSE	TUMOR FREE	47.7	DiseaseFree	47.7	40.5	Sensitive
TCGA-25-2391	57.36	DECEASED	IIIC	G3	>20mm	COMPLETE RESPONSE	TUMOR FREE	48.92	DiseaseFree	48.92	43.82	Sensitive
TCGA-61-1913	48.12	LIVING	IIIB	G3	1-10 mm	COMPLETE RESPONSE	TUMOR FREE	49.08	DiseaseFree	49.08	44.7	Sensitive
TCGA-61-2092	57.72	LIVING	IIIC	G3	No Macroscopic disease	COMPLETE RESPONSE	TUMOR FREE	51.67	DiseaseFree	51.67	46.4	Sensitive
TCGA-13-0900	59.47	LIVING	IIIC	G3		COMPLETE RESPONSE	TUMOR FREE	56.59	DiseaseFree	56.59	51.7	Sensitive
TCGA-61-2097	71.11	LIVING	IIC	G2	1-10 mm	COMPLETE RESPONSE	TUMOR FREE	60.69	DiseaseFree	60.69	55.1	Sensitive
TCGA-13-0889	75.82	LIVING	IV		1-10 mm	COMPLETE RESPONSE	TUMOR FREE	61.64	DiseaseFree	61.64	56.5	Sensitive
TCGA-04-1347	81.36	LIVING	IV	G3	No Macroscopic disease	COMPLETE RESPONSE	TUMOR FREE	62.89	DiseaseFree	62.89	57.4	Sensitive
TCGA-13-0890	56.9	LIVING	IIIC	G3	1-10 mm	COMPLETE RESPONSE	TUMOR FREE	67.8	DiseaseFree	67.8	59.97	Sensitive
TCGA-61-2098	62.65	LIVING	IIIC	G2	11-20 mm	COMPLETE RESPONSE	TUMOR FREE	65.54	DiseaseFree	65.54	60.7	Sensitive
TCGA-13-0888	78.08	LIVING	IIIC	G3	No Macroscopic disease	PARTIAL RESPONSE	TUMOR FREE	70.2	DiseaseFree	70.2	62.8	Sensitive
TCGA-61-1915	50.46	LIVING	IIC	G3		COMPLETE RESPONSE	TUMOR FREE	67.7	DiseaseFree	67.7	63	Sensitive
TCGA-04-1367	50.89	LIVING	IIIC	G3	No Macroscopic disease	COMPLETE RESPONSE	TUMOR FREE	71.28	DiseaseFree	71.28	64.9	Sensitive
TCGA-13-1492	66.7	LIVING	IIIC	G3		COMPLETE RESPONSE	TUMOR FREE	72.89	DiseaseFree	72.89	65.4	Sensitive
TCGA-13-0886	67.73	LIVING	IIIC	G3	1-10 mm	COMPLETE RESPONSE	TUMOR FREE	74.07	DiseaseFree	74.07	65.6	Sensitive
TCGA-61-2094	63.75	LIVING	IIIC	G3		COMPLETE RESPONSE	TUMOR FREE	71.67	DiseaseFree	71.67	66.2	Sensitive
TCGA-09-2050	65.72	LIVING	IIA	G2	No Macroscopic disease	COMPLETE RESPONSE	TUMOR FREE	70.92	DiseaseFree	70.92	67.28	Sensitive
TCGA-13-1481	76.43	DECEASED	IIIC	G2	1-10 mm	COMPLETE RESPONSE	TUMOR FREE	86.82	DiseaseFree	86.82	79.1	Sensitive
TCGA-23-1118	45.12	LIVING	IIIC	G3	>20mm	COMPLETE RESPONSE	TUMOR FREE	85.77	DiseaseFree	85.77	79.5	Sensitive
TCGA-23-2078	66.36	LIVING	IIIC	G3	No Macroscopic disease	COMPLETE RESPONSE	TUMOR FREE	87.25	DiseaseFree	87.25	82.6	Sensitive
TCGA-13-0885	70.58	LIVING	IIIC	G3	11-20 mm	COMPLETE RESPONSE		91.15	DiseaseFree	91.15	84.4	Sensitive
TCGA-24-2293	27.21			G3	>20mm	PROGRESSIVE DISEASE		16.59	DiseaseFree	Missing		Missing
TCGA-36-1577	43.3	LIVING	IIC	G2	No Macroscopic disease	COMPLETE RESPONSE	TUMOR FREE	25.67	DiseaseFree	25.67		Missing
TCGA-24-2019	46.6	LIVING	IIIC	G3	1-10 mm			4.85	DiseaseFree	4.85		Missing
TCGA-24-1546	46.93	DECEASED	IIIC	G3	1-10 mm			64.1	DiseaseFree	Missing		Missing
TCGA-24-1428	50.15	LIVING	IIIC	G3	1-10 mm			3.67	DiseaseFree	3.67		Missing
TCGA-04-1357	52.05	LIVING	IIIB	G3					DiseaseFree	Missing		Missing
TCGA-36-1569	52.5	LIVING	IIIC	G3	1-10 mm	PARTIAL RESPONSE		28.56	DiseaseFree	28.56		Missing
TCGA-13-0807	54.49	DECEASED	IIIC	G3	>20mm			13.57	DiseaseFree	Missing		Missing
TCGA-04-1336	55.53	LIVING	IIIB	G3	No Macroscopic disease	COMPLETE RESPONSE	TUMOR FREE	49.02	DiseaseFree	49.02		Missing
TCGA-24-2297	56.13	DECEASED	IIIC	G3	>20mm	COMPLETE RESPONSE		55.7	DiseaseFree	Missing		Missing
TCGA-57-1993	56.15	LIVING	IIIC	G3	No Macroscopic disease		TUMOR FREE	24.69	DiseaseFree	24.69		Missing
TCGA-29-1699	57.89	DECEASED	IIIC	G3	1-10 mm			36.26	DiseaseFree	Missing		Missing
TCGA-25-2397	59.13	DECEASED	IV	G3	No Macroscopic disease			11.97	DiseaseFree	Missing		Missing
TCGA-61-1917	60.19	DECEASED	IIIB	G3		COMPLETE RESPONSE		43.41	DiseaseFree	Missing		Missing
TCGA-24-1471	60.5	LIVING	IIIC	G3	>20mm			1.18	DiseaseFree	1.18		Missing
TCGA-29-1695	62.72	DECEASED	IIIC	G2	>20mm			40.3	DiseaseFree	Missing		Missing
TCGA-13-0760	63.23	DECEASED	IV	G3	No Macroscopic disease			10.1	DiseaseFree	Missing		Missing
TCGA-25-2401	64.96	DECEASED	IIIC	G3	1-10 mm			2.95	DiseaseFree	Missing		Missing
TCGA-25-1317	66.3	DECEASED	IIIC	G3				2.23	DiseaseFree	Missing		Missing
TCGA-24-2281	68.55	LIVING	IIA	G3	1-10 mm	COMPLETE RESPONSE	TUMOR FREE	44.46	DiseaseFree	44.46		Missing
TCGA-25-1312	69.96	DECEASED	IV	G3	1-10 mm			1.02	DiseaseFree	Missing		Missing
TCGA-25-2396	71.63	DECEASED	IIIC	G3	No Macroscopic disease			3.02	DiseaseFree	Missing		Missing
TCGA-25-1631	73.12	DECEASED	IIIC	G3	1-10 mm		TUMOR FREE	0.3	DiseaseFree	0.3		Missing
TCGA-25-1627	73.38	DECEASED	IIIC	G3	1-10 mm			12.92	DiseaseFree	Missing		Missing
TCGA-04-1346	73.6	LIVING	IIIC	G2		COMPLETE RESPONSE	TUMOR FREE	65.31	DiseaseFree	65.31		Missing
TCGA-25-1630	73.99	DECEASED	IIIC	G3	1-10 mm	COMPLETE RESPONSE		38.1	DiseaseFree	Missing		Missing
TCGA-25-1324	74.22	DECEASED	IIIC	G3	1-10 mm			33.93	DiseaseFree	Missing		Missing
TCGA-30-1861	74.25	DECEASED	IIIC	G3	1-10 mm			34.69	DiseaseFree	Missing		Missing
TCGA-25-2392	75.8	DECEASED	IV	G3	11-20 mm			1.02	DiseaseFree	Missing		Missing
TCGA-25-1329	76.97	DECEASED	IIIC	G3	11-20 mm			14.98	DiseaseFree	Missing		Missing
TCGA-25-1325	77.21	DECEASED	IV	G3	>20mm			32	DiseaseFree	Missing		Missing
TCGA-20-0991	78.69	LIVING	IIB	G3	No Macroscopic disease	COMPLETE RESPONSE	TUMOR FREE	25.25	DiseaseFree	25.25		Missing
TCGA-61-2012	81.72	LIVING	IIC	G2				30.62	DiseaseFree	30.62		Missing
TCGA-24-1422	82.83	DECEASED	IIIC	G3	1-10 mm			0.75	DiseaseFree	Missing		Missing
TCGA-36-1575	83.81	LIVING	IIIB	G3	No Macroscopic disease		TUMOR FREE	8.52	DiseaseFree	8.52		Missing
TCGA-04-1341	85.52	LIVING		G3					DiseaseFree	Missing		Missing
TCGA-59-2363		LIVING	IIIA	G3	No Macroscopic disease	COMPLETE RESPONSE	TUMOR FREE	5.15	DiseaseFree	5.15		Missing
TCGA-59-2348		LIVING	IIIC	G3		COMPLETE RESPONSE	TUMOR FREE	179.18	DiseaseFree	179.18		Missing
TCGA-24-1928	77.08	DECEASED	IIIC	G3	11-20 mm	PROGRESSIVE DISEASE	WITH TUMOR	10.75	Recurred/Progressed	2.03	-1.9	Resistant
TCGA-29-1698	53.73	LIVING	IIIC	G3	1-10 mm	COMPLETE RESPONSE	WITH TUMOR	68.1	Recurred/Progressed	5.9	-1.8	Resistant
TCGA-24-0980	53.64	DECEASED	IIIC	G3	>20mm	PROGRESSIVE DISEASE	WITH TUMOR	7.64	Recurred/Progressed	4.75	-1.1	Resistant
TCGA-24-0970	63.77	DECEASED	IIIC	G3	>20mm	PARTIAL RESPONSE	WITH TUMOR	11.61	Recurred/Progressed	9.18	-1	Resistant
TCGA-13-0725	44.09	DECEASED	IIIC	G3	1-10 mm	COMPLETE RESPONSE	WITH TUMOR	12.1	Recurred/Progressed	5.97	-0.8	Resistant
TCGA-23-1027	48.19	DECEASED	IIIC	G3	1-10 mm	PROGRESSIVE DISEASE		31.97	Recurred/Progressed	3.74	-0.6	Resistant
TCGA-13-0755	75.17	DECEASED	IV	G3	1-10 mm	PROGRESSIVE DISEASE	WITH TUMOR	2.46	Recurred/Progressed	1.11	-0.2	Resistant
TCGA-25-1315	50.04	DECEASED	IIIC	G3	1-10 mm	PARTIAL RESPONSE	WITH TUMOR	51.9	Recurred/Progressed	5.02	0	Resistant
TCGA-61-1738	60.16	DECEASED	IIIC	G3	1-10 mm	PROGRESSIVE DISEASE	WITH TUMOR	35.93	Recurred/Progressed	9.28	0	Resistant
TCGA-31-1953	52.2	LIVING	IIIC	G3		PROGRESSIVE DISEASE	WITH TUMOR	7.05	Recurred/Progressed	2.66	0.2	Resistant
TCGA-13-0723	63.27	DECEASED	IIIC	G3	>20mm	PROGRESSIVE DISEASE	WITH TUMOR	39.48	Recurred/Progressed	6.89	0.3	Resistant
TCGA-13-0724	72.26	DECEASED	IV	G3	1-10 mm	PROGRESSIVE DISEASE	WITH TUMOR	1.57	Recurred/Progressed	1.57	0.3	Resistant
TCGA-13-1485	48.36	DECEASED	IV	G2	1-10 mm	PARTIAL RESPONSE	WITH TUMOR	20.3	Recurred/Progressed	5.25	0.7	Resistant
TCGA-24-1565	74.1	DECEASED	IIIC	G3	1-10 mm	PARTIAL RESPONSE	WITH TUMOR	10.23	Recurred/Progressed	4.75	0.7	Resistant
TCGA-23-1028	43.88	LIVING	IIIC	G3	1-10 mm	COMPLETE RESPONSE	WITH TUMOR	49.28	Recurred/Progressed	4.36	0.8	Resistant
TCGA-24-1560	51.15	DECEASED	IIIC	G3	1-10 mm	COMPLETE RESPONSE	WITH TUMOR	43.97	Recurred/Progressed	4.69	0.8	Resistant
TCGA-30-1856	56.51	DECEASED	IIIC	G3	1-10 mm	PARTIAL RESPONSE	WITH TUMOR	15.64	Recurred/Progressed	7.18	0.8	Resistant
TCGA-13-0757	71.23	DECEASED	IIIC	G3	1-10 mm	COMPLETE RESPONSE	WITH TUMOR	11.15	Recurred/Progressed	9.61	0.8	Resistant
TCGA-24-1558	73.98	DECEASED	IIIC	G3	1-10 mm	PARTIAL RESPONSE	WITH TUMOR	19.48	Recurred/Progressed	8.95	0.8	Resistant
TCGA-24-0982	77.26	DECEASED	IIIC	G3	1-10 mm	COMPLETE RESPONSE	WITH TUMOR	22.26	Recurred/Progressed	4.98	0.85	Resistant
TCGA-04-1525	47.86	DECEASED	IIIC	G3	1-10 mm	COMPLETE RESPONSE	WITH TUMOR	38.26	Recurred/Progressed	6.95	0.9	Resistant
TCGA-13-0805	57.57	DECEASED	IIIC	G3	1-10 mm	PROGRESSIVE DISEASE	WITH TUMOR	35.21	Recurred/Progressed	5.77	0.9	Resistant
TCGA-25-1328	38.11	DECEASED	IIIC	G3	1-10 mm	PARTIAL RESPONSE	WITH TUMOR	65.87	Recurred/Progressed	8	1	Resistant
TCGA-13-1477	49.68	DECEASED	IV	G2	1-10 mm	PROGRESSIVE DISEASE	WITH TUMOR	53.67	Recurred/Progressed	6.89	1	Resistant
TCGA-13-1500	71.7	DECEASED	IIIC	G3	11-20 mm	PARTIAL RESPONSE	WITH TUMOR	13.93	Recurred/Progressed	8.3	1	Resistant
TCGA-61-1901	65.87	DECEASED	IV	G3		STABLE DISEASE	WITH TUMOR	11.38	Recurred/Progressed	10.79	1.2	Resistant
TCGA-30-1891	61.22	DECEASED	IIIC	G2	1-10 mm	PARTIAL RESPONSE	WITH TUMOR	29.97	Recurred/Progressed	5.93	1.3	Resistant
TCGA-04-1349	69.06	DECEASED	IV	G3		COMPLETE RESPONSE	WITH TUMOR	21.64	Recurred/Progressed	14.07	1.5	Resistant
TCGA-61-1733	71.72	LIVING	IIIC	G3	No Macroscopic disease	STABLE DISEASE	WITH TUMOR	31.8	Recurred/Progressed	5.84	1.6	Resistant
TCGA-61-2110	56.75	DECEASED	IIIC		No Macroscopic disease	PROGRESSIVE DISEASE	WITH TUMOR	44.52	Recurred/Progressed	7.11	1.7	Resistant
TCGA-04-1362	59.58	DECEASED	IIC	G3	1-10 mm		WITH TUMOR	44.2	Recurred/Progressed	7.31	1.7	Resistant
TCGA-24-1431	67.83	DECEASED	IIIC	G3	1-10 mm		WITH TUMOR	19.11	Recurred/Progressed	6.52	1.7	Resistant
TCGA-10-0934	50.96	DECEASED	IIIC	G3	1-10 mm	PROGRESSIVE DISEASE	WITH TUMOR	6.66	Recurred/Progressed	3.61	1.8	Resistant
TCGA-25-1316	55.7	DECEASED	IIIC	G3	1-10 mm	PROGRESSIVE DISEASE	WITH TUMOR	41.93	Recurred/Progressed	9.05	1.9	Resistant
TCGA-13-1483	61.28	DECEASED	IIIC	G3	>20mm	PARTIAL RESPONSE	WITH TUMOR	28.49	Recurred/Progressed	8.89	1.9	Resistant
TCGA-25-2399	80.47	DECEASED	IIIC	G3	>20mm	PARTIAL RESPONSE	WITH TUMOR	19.93	Recurred/Progressed	7.97	1.9	Resistant
TCGA-25-1318	54.12	DECEASED	IIIC	G3	1-10 mm	PARTIAL RESPONSE	WITH TUMOR	34.89	Recurred/Progressed	6.07	2.1	Resistant
TCGA-09-0366	56	DECEASED	IIIC	G3	1-10 mm	STABLE DISEASE	WITH TUMOR	57.57	Recurred/Progressed	6.2	2.5	Resistant
TCGA-24-1562	67.8	DECEASED	IIIC	G3	1-10 mm	COMPLETE RESPONSE	WITH TUMOR	45.38	Recurred/Progressed	7.48	2.5	Resistant
TCGA-13-0904	63.86	LIVING	IIIC	G3	>20mm	PARTIAL RESPONSE	WITH TUMOR	47.18	Recurred/Progressed	9.77	2.6	Resistant
TCGA-61-1906	55.81	DECEASED	IIIC	G3	11-20 mm	COMPLETE RESPONSE	WITH TUMOR	34.23	Recurred/Progressed	7.93	2.8	Resistant
TCGA-24-1548	57.38	DECEASED	IIIC	G3	1-10 mm	COMPLETE RESPONSE	WITH TUMOR	16.16	Recurred/Progressed	6.79	2.8	Resistant
TCGA-10-0937	44.44	DECEASED	IIIC	G3	1-10 mm	COMPLETE RESPONSE	WITH TUMOR	19.93	Recurred/Progressed	7.7	2.9	Resistant
TCGA-29-1702	84.68	DECEASED	IIIC	G3	1-10 mm	COMPLETE RESPONSE	WITH TUMOR	23.87	Recurred/Progressed	9.34	2.9	Resistant
TCGA-13-0911	55.57	LIVING	IV	G3	1-10 mm	PARTIAL RESPONSE	WITH TUMOR	27.41	Recurred/Progressed	8.92	3	Resistant
TCGA-36-1580	82.17	DECEASED	IIIC	G3	>20mm		WITH TUMOR	24.16	Recurred/Progressed	14.43	3	Resistant
TCGA-36-1578	63.92	LIVING	IV	G3	>20mm		WITH TUMOR	27.77	Recurred/Progressed	10.16	3.1	Resistant
TCGA-57-1586	66.68	LIVING	IIIC	G3	11-20 mm		WITH TUMOR	21.57	Recurred/Progressed	7.8	3.2	Resistant
TCGA-04-1364	61.08	DECEASED	IIIC	G3	1-10 mm	PROGRESSIVE DISEASE	WITH TUMOR	33.61	Recurred/Progressed	9.48	3.3	Resistant
TCGA-24-1564	67.58	DECEASED	IIIC	G3	1-10 mm	COMPLETE RESPONSE	WITH TUMOR	25.8	Recurred/Progressed	7.25	3.4	Resistant
TCGA-04-1638	57.5	DECEASED	IV	G3	No Macroscopic disease		TUMOR FREE	55.25	Recurred/Progressed	9.77	3.5	Resistant
TCGA-25-1628	67.09	DECEASED	IIIC	G3	1-10 mm	STABLE DISEASE	WITH TUMOR	20.52	Recurred/Progressed	9.38	3.5	Resistant
TCGA-24-1923	51.05	DECEASED	IIIC	G3	1-10 mm	COMPLETE RESPONSE	WITH TUMOR	22.43	Recurred/Progressed	11.08	3.52	Resistant
TCGA-24-1434	59.75	DECEASED	IIIC	G3	1-10 mm	PARTIAL RESPONSE	WITH TUMOR	18.62	Recurred/Progressed	11.05	3.6	Resistant
TCGA-13-0764	63.01	LIVING	IV	G3	1-10 mm	PARTIAL RESPONSE	WITH TUMOR	29.84	Recurred/Progressed	7.8	3.6	Resistant
TCGA-25-1626	65.57	DECEASED	IIIC	G3	>20mm	PARTIAL RESPONSE	WITH TUMOR	16.95	Recurred/Progressed	10.43	3.6	Resistant
TCGA-61-2000	67.72	LIVING	IIIC	G3	No Macroscopic disease	STABLE DISEASE	WITH TUMOR	14.66	Recurred/Progressed	11.31	3.6	Resistant
TCGA-13-0720	48.76	DECEASED	IIIC	G3	1-10 mm	COMPLETE RESPONSE	WITH TUMOR	44.43	Recurred/Progressed	9.57	3.7	Resistant
TCGA-13-0803	81.33	DECEASED	IIIC	G3	No Macroscopic disease	COMPLETE RESPONSE	WITH TUMOR	43.7	Recurred/Progressed	11.02	3.7	Resistant
TCGA-29-1705	48.03	DECEASED	IIIC	G2	>20mm	COMPLETE RESPONSE	WITH TUMOR	18.2	Recurred/Progressed	9.28	3.71	Resistant
TCGA-24-2033		DECEASED	IIIC	G3	>20mm	PARTIAL RESPONSE	WITH TUMOR	18.43	Recurred/Progressed	11.51	3.77	Resistant
TCGA-13-0717	54.91	DECEASED	IIIC	G3	>20mm	COMPLETE RESPONSE	WITH TUMOR	24.52	Recurred/Progressed	9.64	3.8	Resistant
TCGA-30-1892	52.75	DECEASED	IIIC	G3	1-10 mm	COMPLETE RESPONSE	WITH TUMOR	48.66	Recurred/Progressed	8.3	3.9	Resistant
TCGA-30-1714	68.58	DECEASED	IV	G3	1-10 mm	COMPLETE RESPONSE	WITH TUMOR	37.97	Recurred/Progressed	7.9	3.9	Resistant
TCGA-25-2409	71.96	DECEASED	IV	G3	1-10 mm	COMPLETE RESPONSE	WITH TUMOR	26.89	Recurred/Progressed	9.93	3.9	Resistant
TCGA-13-0795	66.94	LIVING	IIIC	G3	>20mm	COMPLETE RESPONSE	WITH TUMOR	18.56	Recurred/Progressed	9.7	4	Resistant
TCGA-23-1117	42.99	DECEASED	IIIC	G3	1-10 mm	COMPLETE RESPONSE	WITH TUMOR	33.21	Recurred/Progressed	13.7	4.1	Resistant
TCGA-24-1552	77.07	DECEASED	IIIC	G3	1-10 mm	COMPLETE RESPONSE	WITH TUMOR	41.28	Recurred/Progressed	13.21	4.11	Resistant
TCGA-13-0727	71.74	DECEASED	IIIC	G3	1-10 mm	COMPLETE RESPONSE	WITH TUMOR	15.15	Recurred/Progressed	8.3	4.3	Resistant
TCGA-29-1701	56.81	DECEASED	IIIC	G3		PARTIAL RESPONSE	WITH TUMOR	16.89	Recurred/Progressed	9.77	4.5	Resistant
TCGA-13-0791	58.57	LIVING	IIIC	G3	No Macroscopic disease	COMPLETE RESPONSE	WITH TUMOR	38.82	Recurred/Progressed	9.21	4.6	Resistant
TCGA-10-0926	63.85	DECEASED	IIIC	G3	11-20 mm	COMPLETE RESPONSE	WITH TUMOR	25.84	Recurred/Progressed	9.41	4.8	Resistant
TCGA-13-0920	65.93	LIVING	IIIC	G3	1-10 mm	COMPLETE RESPONSE	WITH TUMOR	13.77	Recurred/Progressed	9.74	4.8	Resistant
TCGA-24-1567	54.36	DECEASED	IIIB	G3	1-10 mm		WITH TUMOR	17.18	Recurred/Progressed	10.98	5	Resistant
TCGA-24-1924	65.21	DECEASED	IIIC	G3	1-10 mm	COMPLETE RESPONSE	WITH TUMOR	30.13	Recurred/Progressed	10.49	5.13	Resistant
TCGA-23-2079	46.91	LIVING	IIIC	G3	No Macroscopic disease	COMPLETE RESPONSE	TUMOR FREE	91.41	Recurred/Progressed	9.28	5.2	Resistant
TCGA-30-1866	61.81	DECEASED	IV	G2	1-10 mm	COMPLETE RESPONSE	WITH TUMOR	36.52	Recurred/Progressed	9.31	5.2	Resistant
TCGA-24-1464	70.89	DECEASED	IIIC	G3	>20mm		WITH TUMOR	12.43	Recurred/Progressed	10.59	5.2	Resistant
TCGA-29-1703	56.5	LIVING	IIIC	G2	1-10 mm	COMPLETE RESPONSE	WITH TUMOR	55.08	Recurred/Progressed	10.62	5.3	Resistant
TCGA-24-1557	49.16	DECEASED	IIIC	G3	>20mm	PARTIAL RESPONSE	WITH TUMOR	39.77	Recurred/Progressed	14.66	5.5	Resistant
TCGA-13-0804	74.03	DECEASED	IIIC	G3	1-10 mm	COMPLETE RESPONSE	WITH TUMOR	35.18	Recurred/Progressed	10.79	5.5	Resistant
TCGA-29-1696	43.34	DECEASED	IIIC	G2	1-10 mm	PARTIAL RESPONSE	WITH TUMOR	33.84	Recurred/Progressed	11.21	5.6	Resistant
TCGA-10-0938	80.98	DECEASED	IIIC	G3	>20mm	PROGRESSIVE DISEASE	WITH TUMOR	20.85	Recurred/Progressed	11.87	5.6	Resistant
TCGA-10-0931	44.55	DECEASED	IIIC	G3	1-10 mm	COMPLETE RESPONSE	WITH TUMOR	32.79	Recurred/Progressed	9.84	5.7	Resistant
TCGA-29-1775	51.9	LIVING	IIIC	G2		COMPLETE RESPONSE	WITH TUMOR	12.33	Recurred/Progressed	11.18	5.7	Resistant
TCGA-13-0893	48.31	DECEASED	IIIC	G3	11-20 mm	PARTIAL RESPONSE	WITH TUMOR	41.31	Recurred/Progressed	13.18	5.8	Resistant
TCGA-09-0369	56.73	DECEASED	IIIC	G3	No Macroscopic disease	COMPLETE RESPONSE	WITH TUMOR	35.44	Recurred/Progressed	8.95	5.8	Resistant
TCGA-25-1634	76.02	DECEASED	IIIC	G3	No Macroscopic disease	COMPLETE RESPONSE	WITH TUMOR	35.77	Recurred/Progressed	12.46	5.8	Resistant
TCGA-04-1338	78.87	LIVING	IIIC	G3	1-10 mm		WITH TUMOR	46.49	Recurred/Progressed	12.46	5.8	Resistant
TCGA-25-2393	81.05	DECEASED	IIIC	G3	11-20 mm	PARTIAL RESPONSE	WITH TUMOR	37.93	Recurred/Progressed	10	5.9	Resistant
TCGA-13-1488	59.52	DECEASED	IV	G3	11-20 mm	COMPLETE RESPONSE	WITH TUMOR	70.62	Recurred/Progressed	11.51	6	Sensitive
TCGA-13-0793	40.29	LIVING	IV	G3	1-10 mm	COMPLETE RESPONSE	WITH TUMOR	28.62	Recurred/Progressed	11.51	6.3	Sensitive
TCGA-30-1860	58.65	DECEASED	IIIC	G3	>20mm	COMPLETE RESPONSE	WITH TUMOR	44.79	Recurred/Progressed	13.02	6.3	Sensitive
TCGA-30-1880	56.23	DECEASED	IIIC	G3	No Macroscopic disease	PARTIAL RESPONSE	WITH TUMOR	57.41	Recurred/Progressed	11.41	6.4	Sensitive
TCGA-04-1530	68.53	DECEASED	IIIC	G3	1-10 mm	COMPLETE RESPONSE	WITH TUMOR	118.75	Recurred/Progressed	11.48	6.4	Sensitive
TCGA-29-1774	82.17	LIVING	IIIC	G3	>20mm	PROGRESSIVE DISEASE	WITH TUMOR	17.25	Recurred/Progressed	7.64	6.5	Sensitive
TCGA-36-1571	53.72	DECEASED	IIIB	G3	No Macroscopic disease	COMPLETE RESPONSE	WITH TUMOR	22.79	Recurred/Progressed	12.26	6.6	Sensitive
TCGA-24-2290	56.24	DECEASED	IIIC	G3	1-10 mm	COMPLETE RESPONSE	WITH TUMOR	36.13	Recurred/Progressed	10.62	6.66	Sensitive
TCGA-13-0761	51.22	LIVING	IV	G3	No Macroscopic disease	COMPLETE RESPONSE	WITH TUMOR	33.97	Recurred/Progressed	13.87	6.7	Sensitive
TCGA-23-1122	53.53	DECEASED	IIIC	G3	1-10 mm	COMPLETE RESPONSE	WITH TUMOR	38.98	Recurred/Progressed	14.66	6.7	Sensitive
TCGA-25-1623	71.39	DECEASED	IV	G3	No Macroscopic disease	COMPLETE RESPONSE	WITH TUMOR	18.52	Recurred/Progressed	11.21	6.7	Sensitive
TCGA-13-1487	74.45	DECEASED	IV			COMPLETE RESPONSE	WITH TUMOR	22.33	Recurred/Progressed	13.51	6.7	Sensitive
TCGA-31-1950	76.96	LIVING	IIIC	G2	1-10 mm	PARTIAL RESPONSE	WITH TUMOR	19.02	Recurred/Progressed	11.74	6.7	Sensitive
TCGA-04-1517	79.57	DECEASED	IIIC	G3	>20mm	COMPLETE RESPONSE	WITH TUMOR	19.93	Recurred/Progressed	11.44	6.7	Sensitive
TCGA-09-0364	80.17	DECEASED	IIC	G3	11-20 mm	COMPLETE RESPONSE	WITH TUMOR	29.08	Recurred/Progressed	12.95	6.8	Sensitive
TCGA-13-1501	50.49	LIVING	IV	G3	>20mm	PARTIAL RESPONSE	WITH TUMOR	31.57	Recurred/Progressed	11.67	6.9	Sensitive
TCGA-24-1474	57.27	DECEASED	IIIC	G3	1-10 mm	PARTIAL RESPONSE	WITH TUMOR	22.13	Recurred/Progressed	10.85	6.9	Sensitive
TCGA-04-1332	70.64	DECEASED	IIIC	G3	1-10 mm		WITH TUMOR	40.89	Recurred/Progressed	12.95	6.92	Sensitive
TCGA-23-1110	42.15	LIVING	IIIC	G3	No Macroscopic disease	COMPLETE RESPONSE	TUMOR FREE	54.36	Recurred/Progressed	10.69	7.1	Sensitive
TCGA-13-0726	55.16	DECEASED	IIIC		1-10 mm	COMPLETE RESPONSE	WITH TUMOR	31.08	Recurred/Progressed	12.85	7.3	Sensitive
TCGA-10-0933	77.9	DECEASED	IIIC	G3	No Macroscopic disease	COMPLETE RESPONSE	WITH TUMOR	14.62	Recurred/Progressed	11.67	7.3	Sensitive
TCGA-13-0901	42.01	LIVING	IIIC	G3	>20mm	COMPLETE RESPONSE	WITH TUMOR	19.31	Recurred/Progressed	12.79	7.4	Sensitive
TCGA-13-0894	53.33	DECEASED	IIIC	G3	1-10 mm	COMPLETE RESPONSE	WITH TUMOR	49.48	Recurred/Progressed	18.52	7.7	Sensitive
TCGA-29-1770	54.83	LIVING	IIIC	G2	1-10 mm	COMPLETE RESPONSE	WITH TUMOR	24.3	Recurred/Progressed	12.36	7.9	Sensitive
TCGA-24-1616	56.95	DECEASED	IIIC	G3	1-10 mm	COMPLETE RESPONSE	WITH TUMOR	38.13	Recurred/Progressed	13.28	7.9	Sensitive
TCGA-25-1323	72.88	DECEASED	IIIC	G3	1-10 mm	COMPLETE RESPONSE	WITH TUMOR	12.95	Recurred/Progressed	11.97	7.9	Sensitive
TCGA-36-1570	49.19	LIVING	IIIC	G3	>20mm	PARTIAL RESPONSE	WITH TUMOR	21.48	Recurred/Progressed	12.3	8	Sensitive
TCGA-24-0979	53.68	DECEASED	IV	G3	>20mm	COMPLETE RESPONSE	WITH TUMOR	41.44	Recurred/Progressed	14.03	8	Sensitive
TCGA-25-1326	61.2	DECEASED	IIIC	G3	1-10 mm	PARTIAL RESPONSE	WITH TUMOR	40.92	Recurred/Progressed	12.95	8	Sensitive
TCGA-25-1313	62.96	DECEASED	IV	G3	1-10 mm	COMPLETE RESPONSE	WITH TUMOR	26.85	Recurred/Progressed	12.92	8	Sensitive
TCGA-25-1320	65.8	DECEASED	IIIC	G3	1-10 mm	PROGRESSIVE DISEASE	WITH TUMOR	37.84	Recurred/Progressed	13.87	8	Sensitive
TCGA-13-0887	42.93	DECEASED	IIIC	G3	1-10 mm	COMPLETE RESPONSE	WITH TUMOR	66.46	Recurred/Progressed	16.82	8.1	Sensitive
TCGA-24-1563	66.5	DECEASED	IIIC	G3	1-10 mm	COMPLETE RESPONSE	WITH TUMOR	47.57	Recurred/Progressed	12.98	8.3	Sensitive
TCGA-09-1665	74	DECEASED	IIIC	G2	No Macroscopic disease	COMPLETE RESPONSE	WITH TUMOR	41.48	Recurred/Progressed	15.34	8.5	Sensitive
TCGA-04-1648	57.84	DECEASED	IIIC	G2	1-10 mm			28.56	Recurred/Progressed	13.51	8.6	Sensitive
TCGA-04-1536	60.11	DECEASED	IV	G3	1-10 mm		WITH TUMOR	28.98	Recurred/Progressed	16.33	8.7	Sensitive
TCGA-61-1918	45.7	DECEASED	IV	G3	No Macroscopic disease	COMPLETE RESPONSE	WITH TUMOR	15.93	Recurred/Progressed	13.77	8.7	Sensitive
TCGA-24-1930	53.36	DECEASED	IIIC	G3	1-10 mm	COMPLETE RESPONSE	WITH TUMOR	78	Recurred/Progressed	14.92	8.72	Sensitive
TCGA-04-1646	60.84	DECEASED	IIIC	G3	1-10 mm		WITH TUMOR	27.8	Recurred/Progressed	16.66	8.8	Sensitive
TCGA-25-1321	65.72	DECEASED	IIIC	G3	No Macroscopic disease	COMPLETE RESPONSE	WITH TUMOR	33.87	Recurred/Progressed	14.85	9	Sensitive
TCGA-24-1105	36.13	DECEASED	IIIC	G3	1-10 mm	COMPLETE RESPONSE	WITH TUMOR	47.28	Recurred/Progressed	15.41	9.48	Sensitive
TCGA-23-1022	67.94	DECEASED	IIIC	G3	1-10 mm	COMPLETE RESPONSE	WITH TUMOR	49.54	Recurred/Progressed	14.75	9.5	Sensitive
TCGA-04-1331	79.04	DECEASED	IIIC	G3	1-10 mm	COMPLETE RESPONSE	WITH TUMOR	43.8	Recurred/Progressed	15.05	9.6	Sensitive
TCGA-24-2024	72.53	DECEASED	IIIC	G3	1-10 mm	COMPLETE RESPONSE	WITH TUMOR	58	Recurred/Progressed	13.8	9.8	Sensitive
TCGA-25-2404	38.86	DECEASED	IIIC	G3	No Macroscopic disease	COMPLETE RESPONSE	WITH TUMOR	28.92	Recurred/Progressed	13.93	9.9	Sensitive
TCGA-09-1666	57.72	LIVING	IIIC	G3	No Macroscopic disease	COMPLETE RESPONSE	WITH TUMOR	57.41	Recurred/Progressed	15.74	10.1	Sensitive
TCGA-13-0908	58.69	LIVING	IV	G3	1-10 mm	COMPLETE RESPONSE	WITH TUMOR	44.72	Recurred/Progressed	18.1	10.1	Sensitive
TCGA-13-1484	62.34	LIVING	IIIC	G3		COMPLETE RESPONSE	WITH TUMOR	95.9	Recurred/Progressed	14.39	10.1	Sensitive
TCGA-61-1741	76.05	DECEASED	IIIB	G3	>20mm	COMPLETE RESPONSE	WITH TUMOR	33.67	Recurred/Progressed	16.07	10.1	Sensitive
TCGA-24-2029	75.41	DECEASED	IIIC	G3	>20mm	COMPLETE RESPONSE	WITH TUMOR	14.39	Recurred/Progressed	17.57	10.31	Sensitive
TCGA-29-1785	55.94	DECEASED	IIIC	G3	>20mm	COMPLETE RESPONSE		36.2	Recurred/Progressed	15.51	10.4	Sensitive
TCGA-29-1697	62.83	DECEASED	IIIC	G3	>20mm	COMPLETE RESPONSE	WITH TUMOR	31.08	Recurred/Progressed	16.36	10.4	Sensitive
TCGA-13-1498	73.48	LIVING	IIIC	G3	>20mm	PARTIAL RESPONSE	WITH TUMOR	37.51	Recurred/Progressed	17.48	10.4	Sensitive
TCGA-13-0912	58.7	LIVING	IIIC	G3	No Macroscopic disease	COMPLETE RESPONSE	WITH TUMOR	33.97	Recurred/Progressed	15.34	10.6	Sensitive
TCGA-23-2072	58.97	DECEASED	IV	G3	>20mm	COMPLETE RESPONSE	WITH TUMOR	24.89	Recurred/Progressed	15.61	10.6	Sensitive
TCGA-29-1763	43.89	LIVING	IIC	G2	1-10 mm	COMPLETE RESPONSE	WITH TUMOR	66.59	Recurred/Progressed	14.03	10.8	Sensitive
TCGA-61-1728	59.12	LIVING	IV	G3	1-10 mm	COMPLETE RESPONSE	TUMOR FREE	27.9	Recurred/Progressed	17.57	10.8	Sensitive
TCGA-25-1632	68.47	DECEASED	IV	G3	1-10 mm	COMPLETE RESPONSE	WITH TUMOR	58.98	Recurred/Progressed	17.61	11	Sensitive
TCGA-24-1430	68.33	DECEASED	IIIC	G3	>20mm	COMPLETE RESPONSE	WITH TUMOR	28.26	Recurred/Progressed	14.69	11.2	Sensitive
TCGA-09-1667	61.11	LIVING	IIC	G2	No Macroscopic disease	COMPLETE RESPONSE	WITH TUMOR	61.7	Recurred/Progressed	15.08	11.3	Sensitive
TCGA-24-1466	74.81	DECEASED	IIIC	G3	1-10 mm	COMPLETE RESPONSE	WITH TUMOR	45.02	Recurred/Progressed	16.1	11.4	Sensitive
TCGA-24-2280	74.95	LIVING	IIIC	G3	1-10 mm	COMPLETE RESPONSE	WITH TUMOR	70.26	Recurred/Progressed	17.51	11.61	Sensitive
TCGA-24-2027	51.6	DECEASED	IV	G3	>20mm	COMPLETE RESPONSE	WITH TUMOR	109.38	Recurred/Progressed	20.23	11.63	Sensitive
TCGA-13-1491	55.52	DECEASED	IIIC	G3		PARTIAL RESPONSE	WITH TUMOR	52.2	Recurred/Progressed	16.56	11.7	Sensitive
TCGA-24-1435	57.83	DECEASED	IIIC	G3	1-10 mm	COMPLETE RESPONSE	WITH TUMOR	43.41	Recurred/Progressed	16.56	11.7	Sensitive
TCGA-23-1023	65.27	LIVING	IIIC	G3	1-10 mm	COMPLETE RESPONSE	WITH TUMOR	40.43	Recurred/Progressed	16.07	12.07	Sensitive
TCGA-09-1670	58.04	LIVING	IIIA	G3	No Macroscopic disease	COMPLETE RESPONSE	WITH TUMOR	16.69	Recurred/Progressed	16.69	12.1	Sensitive
TCGA-61-2109	40.8	DECEASED	IIIC	G3	>20mm		WITH TUMOR	20.82	Recurred/Progressed	15.44	12.4	Sensitive
TCGA-23-1030	64.15	LIVING	IIIC	G3	1-10 mm	COMPLETE RESPONSE	TUMOR FREE	29.02	Recurred/Progressed	17.8	12.5	Sensitive
TCGA-25-1635	71.78	DECEASED	IIIC	G3	1-10 mm	COMPLETE RESPONSE	WITH TUMOR	51.9	Recurred/Progressed	20.13	12.5	Sensitive
TCGA-24-2289	69.02	DECEASED	IV	G3	>20mm	COMPLETE RESPONSE	WITH TUMOR	67.18	Recurred/Progressed	18.62	12.52	Sensitive
TCGA-13-0751	44.67	DECEASED	IIIC		1-10 mm	COMPLETE RESPONSE	WITH TUMOR	55.02	Recurred/Progressed	21.41	12.7	Sensitive
TCGA-09-2045	50.1	DECEASED	IV	G2	1-10 mm	STABLE DISEASE	WITH TUMOR	35.05	Recurred/Progressed	20.69	12.72	Sensitive
TCGA-04-1348	44.48	DECEASED	IIIB	G3	1-10 mm	COMPLETE RESPONSE	WITH TUMOR	48.62	Recurred/Progressed	18.82	12.8	Sensitive
TCGA-25-2400	76.13	DECEASED	IIIC	G3	No Macroscopic disease	COMPLETE RESPONSE	WITH TUMOR	41.9	Recurred/Progressed	18.92	12.85	Sensitive
TCGA-13-1499	56.71	LIVING	IIIC	G3		COMPLETE RESPONSE	WITH TUMOR	37.28	Recurred/Progressed	18.1	13	Sensitive
TCGA-24-1553	53.13	DECEASED	IIIB	G3	1-10 mm	COMPLETE RESPONSE	WITH TUMOR	57.93	Recurred/Progressed	18.13	13.1	Sensitive
TCGA-24-0968	59.34	DECEASED	IIIC	G3	1-10 mm	PARTIAL RESPONSE	WITH TUMOR	19.77	Recurred/Progressed	17.7	13.57	Sensitive
TCGA-13-0897	54.5	LIVING	IIIC	G3	1-10 mm	COMPLETE RESPONSE	WITH TUMOR	57.31	Recurred/Progressed	18.13	13.6	Sensitive
TCGA-29-2414	75.12	DECEASED	IIIC	G2	11-20 mm	COMPLETE RESPONSE	WITH TUMOR	85.93	Recurred/Progressed	18.07	13.73	Sensitive
TCGA-13-0899	60.36	LIVING	IIIC	G3	1-10 mm	COMPLETE RESPONSE	WITH TUMOR	56	Recurred/Progressed	17.93	13.8	Sensitive
TCGA-25-2398	71.96	DECEASED	IIIC	G3	1-10 mm	COMPLETE RESPONSE	WITH TUMOR	44.89	Recurred/Progressed	18.92	13.88	Sensitive
TCGA-09-2051	42.88	LIVING	IIIC	G3	No Macroscopic disease	COMPLETE RESPONSE	TUMOR FREE	62.92	Recurred/Progressed	19.11	13.95	Sensitive
TCGA-36-1568	52.91	LIVING	IIIC	G3		PARTIAL RESPONSE	WITH TUMOR	28.66	Recurred/Progressed	17.93	14	Sensitive
TCGA-25-1633	64.13	DECEASED	IIIC	G3	1-10 mm	COMPLETE RESPONSE	WITH TUMOR	62	Recurred/Progressed	20.2	14.3	Sensitive
TCGA-24-2254	66.87	DECEASED	IIIC	G3	1-10 mm	COMPLETE RESPONSE	WITH TUMOR	56.92	Recurred/Progressed	19.87	14.37	Sensitive
TCGA-24-1544	71.62	DECEASED	IIIC	G3	1-10 mm	PARTIAL RESPONSE	WITH TUMOR	26.89	Recurred/Progressed	21.08	14.5	Sensitive
TCGA-13-0766	42.66	LIVING	IIIC	G3	1-10 mm	COMPLETE RESPONSE	WITH TUMOR	21.34	Recurred/Progressed	20.59	14.6	Sensitive
TCGA-36-1574	48.9	LIVING	IIIC	G3	>20mm	COMPLETE RESPONSE	WITH TUMOR	22.49	Recurred/Progressed	21.25	14.6	Sensitive
TCGA-29-1768	50.4	DECEASED	IV	G3	>20mm	STABLE DISEASE	WITH TUMOR	31.21	Recurred/Progressed	17.93	14.6	Sensitive
TCGA-23-1124	63.03	DECEASED	IIIC	G3	No Macroscopic disease	COMPLETE RESPONSE	WITH TUMOR	57.97	Recurred/Progressed	21.02	14.7	Sensitive
TCGA-31-1944	47.11	LIVING	IIIC	G3	No Macroscopic disease	COMPLETE RESPONSE	WITH TUMOR	45.87	Recurred/Progressed	22.66	14.79	Sensitive
TCGA-13-1482	52.61	DECEASED	IV	G2	>20mm	PARTIAL RESPONSE	WITH TUMOR	60.69	Recurred/Progressed	18.89	14.8	Sensitive
TCGA-23-1114	55.92	DECEASED	IIIC	G3	No Macroscopic disease	COMPLETE RESPONSE	WITH TUMOR	68.49	Recurred/Progressed	20.79	14.8	Sensitive
TCGA-29-1771	76.97	LIVING	IIIC	G2	>20mm	COMPLETE RESPONSE	WITH TUMOR	22.46	Recurred/Progressed	19.48	14.9	Sensitive
TCGA-24-1614	57.52	DECEASED	IIIC	G3	1-10 mm	COMPLETE RESPONSE	WITH TUMOR	48.2	Recurred/Progressed	21.11	15	Sensitive
TCGA-23-2084	45.19	DECEASED	IV	G3	No Macroscopic disease	COMPLETE RESPONSE	WITH TUMOR	49.7	Recurred/Progressed	20.3	15.2	Sensitive
TCGA-13-0883	61.36	DECEASED	IIIC	G3	1-10 mm	COMPLETE RESPONSE	WITH TUMOR	68.72	Recurred/Progressed	26.82	15.4	Sensitive
TCGA-29-1691	51.13	DECEASED	IIIC	G2	1-10 mm	COMPLETE RESPONSE	WITH TUMOR	48.2	Recurred/Progressed	20.1	15.6	Sensitive
TCGA-20-1683	65.77	LIVING	IIIC	G3	No Macroscopic disease	STABLE DISEASE	TUMOR FREE	25.31	Recurred/Progressed	20.26	15.9	Sensitive
TCGA-29-1766	74.96	DECEASED	IIIC	G2	11-20 mm	PROGRESSIVE DISEASE	WITH TUMOR	39.28	Recurred/Progressed	22.03	15.9	Sensitive
TCGA-29-1693	72.05	LIVING	IIIC	G3	>20mm	COMPLETE RESPONSE	WITH TUMOR	101.48	Recurred/Progressed	22.75	16.4	Sensitive
TCGA-13-0765	50.89	LIVING	IIIC	G3	1-10 mm	COMPLETE RESPONSE	WITH TUMOR	28.49	Recurred/Progressed	21.9	16.6	Sensitive
TCGA-30-1853	58.64	DECEASED	IIIC	G3	1-10 mm	COMPLETE RESPONSE	WITH TUMOR	36.16	Recurred/Progressed	20.79	16.7	Sensitive
TCGA-31-1951	58.48	LIVING	IIIC	G3	No Macroscopic disease		WITH TUMOR	22.66	Recurred/Progressed	21.84	16.74	Sensitive
TCGA-13-1494	43.94	LIVING	IV	G3		COMPLETE RESPONSE	WITH TUMOR	36.59	Recurred/Progressed	21.25	16.8	Sensitive
TCGA-24-2030			IIIC	G3	>20mm	COMPLETE RESPONSE	WITH TUMOR		Recurred/Progressed	21.18	16.95	Sensitive
TCGA-24-2260	74.3	DECEASED	IIIB	G3	1-10 mm	COMPLETE RESPONSE		35.8	Recurred/Progressed	21.61	17.37	Sensitive
TCGA-13-1489	70.6	LIVING	IIIC	G2		COMPLETE RESPONSE	WITH TUMOR	82.66	Recurred/Progressed	26.43	17.5	Sensitive
TCGA-61-2113	54.01	DECEASED	IIC	G3				22.39	Recurred/Progressed	9.77	17.6	Sensitive
TCGA-24-1103	50.91	DECEASED	IIIC	G3	1-10 mm	COMPLETE RESPONSE	WITH TUMOR	53.93	Recurred/Progressed	22.2	17.96	Sensitive
TCGA-10-0930	70.51	DECEASED	IIIC	G3	1-10 mm	COMPLETE RESPONSE	WITH TUMOR	34.1	Recurred/Progressed	22.3	18.2	Sensitive
TCGA-36-1581	63.76	LIVING	IIC	G3	No Macroscopic disease	COMPLETE RESPONSE	WITH TUMOR	24.62	Recurred/Progressed	23.02	18.5	Sensitive
TCGA-24-1545	69.75	DECEASED	IIIC	G3	>20mm	COMPLETE RESPONSE	WITH TUMOR	57.21	Recurred/Progressed	28.23	19	Sensitive
TCGA-13-0891	73.74	LIVING	IV	G3	No Macroscopic disease	COMPLETE RESPONSE	WITH TUMOR	67.84	Recurred/Progressed	23.97	19	Sensitive
TCGA-61-1907	63.56	LIVING	IIIC	G3	11-20 mm	STABLE DISEASE	WITH TUMOR	31.38	Recurred/Progressed	24.52	19.1	Sensitive
TCGA-36-1576	76.1	LIVING	IIIC	G3	>20mm	COMPLETE RESPONSE	WITH TUMOR	29.97	Recurred/Progressed	26.75	19.5	Sensitive
TCGA-31-1946	30.5	LIVING	IIIC	G3	No Macroscopic disease		WITH TUMOR	30.49	Recurred/Progressed	22.16	20.4	Sensitive
TCGA-61-1736	45.5	DECEASED	IIIC	G3		COMPLETE RESPONSE	WITH TUMOR	48.79	Recurred/Progressed	25.18	20.5	Sensitive
TCGA-29-1764	49.35	LIVING	IIIC	G2	>20mm	COMPLETE RESPONSE	WITH TUMOR	62.75	Recurred/Progressed	25.97	20.5	Sensitive
TCGA-13-1497	48.02	LIVING	IIIC	G3		COMPLETE RESPONSE	WITH TUMOR	54.16	Recurred/Progressed	26.66	20.6	Sensitive
TCGA-24-1551	53.87	DECEASED	IIIC	G3	1-10 mm	COMPLETE RESPONSE	WITH TUMOR	51.77	Recurred/Progressed	25.05	20.6	Sensitive
TCGA-20-0990	74.59	LIVING	IIIC	G3			WITH TUMOR	24.07	Recurred/Progressed	26.72	20.8	Sensitive
TCGA-61-1743	53.05	DECEASED	IIC	G2	No Macroscopic disease	COMPLETE RESPONSE	WITH TUMOR	43.64	Recurred/Progressed	26.59	21	Sensitive
TCGA-13-0792	40.35	LIVING	IIIC	G3	No Macroscopic disease	COMPLETE RESPONSE	WITH TUMOR	36.62	Recurred/Progressed	26.75	21.7	Sensitive
TCGA-61-2008	40.51	LIVING	IIC	G2	No Macroscopic disease	COMPLETE RESPONSE	WITH TUMOR	30.69	Recurred/Progressed	26.95	22	Sensitive
TCGA-04-1655	49.28	DECEASED	IIIB	G2	No Macroscopic disease			45.21	Recurred/Progressed	26.85	22.3	Sensitive
TCGA-61-1725	40.49	LIVING	IIIC	G3	11-20 mm	STABLE DISEASE	WITH TUMOR	31.44	Recurred/Progressed	27.77	22.5	Sensitive
TCGA-04-1652	76.98	DECEASED	IIIC	G2		COMPLETE RESPONSE	WITH TUMOR	31.87	Recurred/Progressed	28.95	22.5	Sensitive
TCGA-23-1026	45.05	LIVING	IIIC	G3	1-10 mm	COMPLETE RESPONSE	WITH TUMOR	26.75	Recurred/Progressed	26.13	22.6	Sensitive
TCGA-61-1911	55.17	LIVING	IIA	G3		COMPLETE RESPONSE	WITH TUMOR	42.62	Recurred/Progressed	27.9	23	Sensitive
TCGA-13-0913	53.62	LIVING	IIIC	G3	No Macroscopic disease	COMPLETE RESPONSE	WITH TUMOR	29.9	Recurred/Progressed	28.56	23.4	Sensitive
TCGA-13-0794	60.12	LIVING	IIIC	G3	1-10 mm	COMPLETE RESPONSE	WITH TUMOR	30.26	Recurred/Progressed	27.7	23.4	Sensitive
TCGA-30-1718	44.93	DECEASED	IIIC	G3	1-10 mm		WITH TUMOR	51.77	Recurred/Progressed	29.38	23.6	Sensitive
TCGA-24-1550	49.45	DECEASED	IIIC	G3	1-10 mm	COMPLETE RESPONSE	WITH TUMOR	40.95	Recurred/Progressed	29.25	23.6	Sensitive
TCGA-61-2009	65.12	LIVING	IIIC	G3	11-20 mm	COMPLETE RESPONSE	WITH TUMOR	39.87	Recurred/Progressed	3.44	23.8	Sensitive
TCGA-04-1654	69.61	DECEASED	IIIC	G2	1-10 mm			46.85	Recurred/Progressed	25.77	24.8	Sensitive
TCGA-24-2036	50.91	DECEASED	IIIA	G3	No Macroscopic disease	COMPLETE RESPONSE	WITH TUMOR	63.84	Recurred/Progressed	29.97	24.87	Sensitive
TCGA-09-2049	64.14	LIVING	IIIC	G3	>20mm	COMPLETE RESPONSE	WITH TUMOR	112.07	Recurred/Progressed	31.21	25.51	Sensitive
TCGA-24-1104	56.22	DECEASED	IV	G3	>20mm	COMPLETE RESPONSE	WITH TUMOR	63.57	Recurred/Progressed	31.61	25.61	Sensitive
TCGA-13-1495	60.4	LIVING	IIIC	G2	1-10 mm	COMPLETE RESPONSE	WITH TUMOR	49.08	Recurred/Progressed	32.03	27.5	Sensitive
TCGA-04-1542	52.78	DECEASED	IIIB	G2	1-10 mm	COMPLETE RESPONSE	WITH TUMOR	83.97	Recurred/Progressed	33.93	27.6	Sensitive
TCGA-04-1651	53.78	DECEASED	IIIC	G3	1-10 mm			36.07	Recurred/Progressed	32.39	27.6	Sensitive
TCGA-24-1463	70.5	DECEASED	IIIC	G3	>20mm	COMPLETE RESPONSE	WITH TUMOR	72.72	Recurred/Progressed	31.84	27.9	Sensitive
TCGA-10-0927	65.7	DECEASED	IIIC	G2	1-10 mm	COMPLETE RESPONSE	WITH TUMOR	81.64	Recurred/Progressed	32.82	28.9	Sensitive
TCGA-09-1662	58.21	DECEASED	IV	G3	1-10 mm	COMPLETE RESPONSE	WITH TUMOR	89.08	Recurred/Progressed	34.3	29.7	Sensitive
TCGA-13-0884	39.96	DECEASED	IIIC	G3	1-10 mm	COMPLETE RESPONSE	WITH TUMOR	105.31	Recurred/Progressed	39.44	31	Sensitive
TCGA-04-1514	45.82	DECEASED	IIIA	G2	No Macroscopic disease	COMPLETE RESPONSE	TUMOR FREE	56.39	Recurred/Progressed	40.03	34	Sensitive
TCGA-29-1707	41.14	LIVING	IIC	G3	No Macroscopic disease	COMPLETE RESPONSE		41.84	Recurred/Progressed	39.34	34.8	Sensitive
TCGA-23-2077	45.35	LIVING	IIIC	G3	No Macroscopic disease	COMPLETE RESPONSE	TUMOR FREE	115.57	Recurred/Progressed	40.39	35.4	Sensitive
TCGA-04-1365	87.47	LIVING	IIIB	G3		COMPLETE RESPONSE	WITH TUMOR	76.33	Recurred/Progressed	43.54	37.4	Sensitive
TCGA-29-1762	59.94	DECEASED	IV	G2	>20mm	COMPLETE RESPONSE	WITH TUMOR	86.36	Recurred/Progressed	45.05	40.6	Sensitive
TCGA-29-2425	60.52	LIVING	IIIC	G2	>20mm	COMPLETE RESPONSE	TUMOR FREE	64.82	Recurred/Progressed	51.7	44.97	Sensitive
TCGA-61-2101	55.57	DECEASED	IIIC	G2	11-20 mm	PARTIAL RESPONSE	WITH TUMOR	55.44	Recurred/Progressed	Missing	48.2	Missing
TCGA-61-1914	65.33	LIVING	IIIC	G3	>20mm	COMPLETE RESPONSE	WITH TUMOR	56.52	Recurred/Progressed	54.95	48.6	Sensitive
TCGA-61-2111	61.68	LIVING	IV	G3		COMPLETE RESPONSE	WITH TUMOR	125.54	Recurred/Progressed	72.46	68	Sensitive
TCGA-24-1467	51.1	DECEASED	IIIC	G3	1-10 mm	COMPLETE RESPONSE	WITH TUMOR	105.7	Recurred/Progressed	41.05	97.5	Sensitive
TCGA-23-1119	64.89	LIVING	IIIC	G3	1-10 mm	COMPLETE RESPONSE	TUMOR FREE	129.61	Recurred/Progressed	110.75	106.9	Sensitive
TCGA-25-2408	37.28	DECEASED	IV	G2	1-10 mm	PARTIAL RESPONSE	WITH TUMOR	30.89	Recurred/Progressed	10.92		Missing
TCGA-29-1688	39.93	DECEASED	IIIC	G2		STABLE DISEASE	WITH TUMOR	78.66	Recurred/Progressed	6		Missing
TCGA-25-1314	42.36	DECEASED	IV	G3	1-10 mm	PARTIAL RESPONSE	WITH TUMOR	32.89	Recurred/Progressed	8.95		Missing
TCGA-13-0903	43.03	LIVING	IV	G3	No Macroscopic disease	COMPLETE RESPONSE	WITH TUMOR	47.25	Recurred/Progressed	Missing		Missing
TCGA-61-1995	43.86	LIVING	IIIC	G3	1-10 mm	STABLE DISEASE	WITH TUMOR	2.16	Recurred/Progressed	Missing		Missing
TCGA-23-1021	45.16	DECEASED	IV	G3	>20mm	PARTIAL RESPONSE	WITH TUMOR	47.41	Recurred/Progressed	Missing		Missing
TCGA-29-1694	45.27	DECEASED	IIIC		11-20 mm	STABLE DISEASE	WITH TUMOR	38.92	Recurred/Progressed	Missing		Missing
TCGA-04-1350	46.41	DECEASED	IIIC	G3	>20mm	STABLE DISEASE	WITH TUMOR	63.8	Recurred/Progressed	3.64		Missing
TCGA-61-2002	46.88	LIVING	IIIC	G3	11-20 mm	PROGRESSIVE DISEASE	WITH TUMOR	18.1	Recurred/Progressed	Missing		Missing
TCGA-30-1867	47.01	DECEASED	IV				WITH TUMOR	1.18	Recurred/Progressed	Missing		Missing
TCGA-61-1724	47.03	DECEASED	IIIC	G3	No Macroscopic disease	PROGRESSIVE DISEASE	WITH TUMOR	20.95	Recurred/Progressed	Missing		Missing
TCGA-57-1584	47.28	LIVING	IIIC	G3	1-10 mm		WITH TUMOR	21.08	Recurred/Progressed	17.38		Missing
TCGA-29-1777	47.55	LIVING	IIIC	G2	>20mm	PROGRESSIVE DISEASE	WITH TUMOR	12.26	Recurred/Progressed	Missing		Missing
TCGA-23-1113	48.74	DECEASED	IV	G3	1-10 mm	PARTIAL RESPONSE	WITH TUMOR	31.11	Recurred/Progressed	Missing		Missing
TCGA-61-1998	48.91	LIVING	IIIC	G3	1-10 mm		WITH TUMOR	5.61	Recurred/Progressed	Missing		Missing
TCGA-23-2081	49.76	DECEASED	IV	G3	1-10 mm	PROGRESSIVE DISEASE	WITH TUMOR	76.79	Recurred/Progressed	Missing		Missing
TCGA-31-1959	49.96	LIVING	IV	G2			WITH TUMOR	2.49	Recurred/Progressed	Missing		Missing
TCGA-24-1555	50.42	DECEASED	IIIC	G3		COMPLETE RESPONSE	WITH TUMOR	88.26	Recurred/Progressed	51.7		Missing
TCGA-24-1556	50.73	DECEASED	IIB	G3	1-10 mm	COMPLETE RESPONSE	WITH TUMOR	70.43	Recurred/Progressed	18		Missing
TCGA-09-1673	50.96	LIVING	IV	G3	>20mm		WITH TUMOR	3.02	Recurred/Progressed	Missing		Missing
TCGA-09-1659	51.32	DECEASED	IIIC	G3	>20mm	STABLE DISEASE	WITH TUMOR	9.93	Recurred/Progressed	Missing		Missing
TCGA-61-2016	51.47	DECEASED	IIIC	G3	No Macroscopic disease	PROGRESSIVE DISEASE	WITH TUMOR	1.25	Recurred/Progressed	Missing		Missing
TCGA-13-1511	52.77	LIVING	IV	G3	>20mm	PARTIAL RESPONSE	WITH TUMOR	3.74	Recurred/Progressed	Missing		Missing
TCGA-61-2104	53.23	LIVING	IIC	G2	No Macroscopic disease	COMPLETE RESPONSE		76.75	Recurred/Progressed	55.21		Missing
TCGA-61-2003	53.73	LIVING	IIIC	G2	1-10 mm	PROGRESSIVE DISEASE	WITH TUMOR	3.8	Recurred/Progressed	Missing		Missing
TCGA-24-1603	53.92	DECEASED	IIIB	G3		COMPLETE RESPONSE	WITH TUMOR	89.9	Recurred/Progressed	32.52		Missing
TCGA-61-2095	54.23	DECEASED	IIIC	G2	No Macroscopic disease	COMPLETE RESPONSE	WITH TUMOR	61.54	Recurred/Progressed	14.66		Missing
TCGA-24-2023	54.52	DECEASED	IIIA	G3	1-10 mm	COMPLETE RESPONSE	WITH TUMOR	44.72	Recurred/Progressed	35.05		Missing
TCGA-29-1710	54.71	DECEASED	IIIC	G2	1-10 mm	PARTIAL RESPONSE	WITH TUMOR	31.18	Recurred/Progressed	10.33		Missing
TCGA-09-1669	54.94	LIVING	IIIA	G3	No Macroscopic disease	COMPLETE RESPONSE	WITH TUMOR	30.39	Recurred/Progressed	Missing		Missing
TCGA-13-0714	55.1	DECEASED	IV	G3	1-10 mm	PROGRESSIVE DISEASE	WITH TUMOR	6.1	Recurred/Progressed	3.51		Missing
TCGA-24-2271	55.89	DECEASED	IIIC	G3	>20mm		WITH TUMOR	31.54	Recurred/Progressed	27.11		Missing
TCGA-24-2298	56.04		IIIC	G3	>20mm	COMPLETE RESPONSE	WITH TUMOR		Recurred/Progressed	Missing		Missing
TCGA-30-1859	56.16	DECEASED		G3	1-10 mm	PARTIAL RESPONSE	WITH TUMOR	47.93	Recurred/Progressed	Missing		Missing
TCGA-04-1361	57.15	LIVING	IIIB	G3	No Macroscopic disease	STABLE DISEASE		32.43	Recurred/Progressed	30.36		Missing
TCGA-24-2262	57.15	DECEASED	IIIC	G3	1-10 mm		WITH TUMOR	0.36	Recurred/Progressed	Missing		Missing
TCGA-57-1585	57.18	DECEASED	IIIC	G3	11-20 mm	PROGRESSIVE DISEASE	WITH TUMOR	1.08	Recurred/Progressed	Missing		Missing
TCGA-24-1436	57.21	DECEASED	IIIC	G3	1-10 mm	PARTIAL RESPONSE	WITH TUMOR	8.52	Recurred/Progressed	Missing		Missing
TCGA-09-1668	57.45	LIVING	IIIC	G3		COMPLETE RESPONSE	WITH TUMOR	55.21	Recurred/Progressed	Missing		Missing
TCGA-57-1583	57.96	DECEASED	IIIC	G3	No Macroscopic disease		WITH TUMOR	11.34	Recurred/Progressed	Missing		Missing
TCGA-61-1919	58.07	DECEASED	IIIC	G2		COMPLETE RESPONSE		38.16	Recurred/Progressed	14.49		Missing
TCGA-09-2054	58.32	DECEASED	IIIC	G3	1-10 mm	PROGRESSIVE DISEASE	WITH TUMOR	20.85	Recurred/Progressed	Missing		Missing
TCGA-24-2267	58.34	DECEASED	IIB	G3	No Macroscopic disease	COMPLETE RESPONSE	WITH TUMOR	47.41	Recurred/Progressed	Missing		Missing
TCGA-24-0975	58.68	DECEASED	IIIC	G3	1-10 mm	PARTIAL RESPONSE	WITH TUMOR	21.74	Recurred/Progressed	9.87		Missing
TCGA-24-1427	58.69	LIVING	IIIC	G3	>20mm	PARTIAL RESPONSE	WITH TUMOR	4.79	Recurred/Progressed	Missing		Missing
TCGA-24-1549	58.72	DECEASED	IIIB	G3		COMPLETE RESPONSE	WITH TUMOR	56.43	Recurred/Progressed	34.16		Missing
TCGA-25-1870	59.04	DECEASED	IIIC	G3	11-20 mm	PARTIAL RESPONSE	WITH TUMOR	14.89	Recurred/Progressed	7.93		Missing
TCGA-23-1123	59.04	DECEASED	IIIC	G3	11-20 mm	PROGRESSIVE DISEASE	WITH TUMOR	33.38	Recurred/Progressed	Missing		Missing
TCGA-23-1107	59.07	DECEASED	IV	G3	>20mm		WITH TUMOR	0.3	Recurred/Progressed	Missing		Missing
TCGA-13-1408	59.27	LIVING	IIIC	G3	>20mm	PARTIAL RESPONSE	WITH TUMOR	5.9	Recurred/Progressed	Missing		Missing
TCGA-29-2427	60.11	LIVING	IIIC	G3	>20mm	COMPLETE RESPONSE	WITH TUMOR	62.3	Recurred/Progressed	51.84		Missing
TCGA-25-1878	60.37	DECEASED	IIIC	G3	1-10 mm	COMPLETE RESPONSE	WITH TUMOR	84.82	Recurred/Progressed	31.84		Missing
TCGA-31-1956	60.55	LIVING	IIIB	G3			WITH TUMOR	43.97	Recurred/Progressed	Missing		Missing
TCGA-25-2042	60.62	DECEASED	IIIC	G3	>20mm	PROGRESSIVE DISEASE	WITH TUMOR	12.98	Recurred/Progressed	Missing		Missing
TCGA-23-1031	60.89	DECEASED	IV	G3	1-10 mm	PARTIAL RESPONSE	WITH TUMOR	18.82	Recurred/Progressed	Missing		Missing
TCGA-20-0987	61.2	DECEASED	IIIC	G3	1-10 mm		WITH TUMOR	21.31	Recurred/Progressed	12.82		Missing
TCGA-30-1855	61.35	DECEASED	IIIC	G3	1-10 mm		WITH TUMOR	2.46	Recurred/Progressed	Missing		Missing
TCGA-25-1322	62.04	DECEASED	IV	G3	>20mm		WITH TUMOR	2.98	Recurred/Progressed	Missing		Missing
TCGA-04-1356	62.61	DECEASED	IIC	G3		PROGRESSIVE DISEASE	WITH TUMOR	49.15	Recurred/Progressed	5.11		Missing
TCGA-23-1109	63.02	DECEASED	IIIC	G3	1-10 mm	PARTIAL RESPONSE	WITH TUMOR	51.21	Recurred/Progressed	32.36		Missing
TCGA-29-1776	63.06	LIVING	IIIC	G3	>20mm	STABLE DISEASE	WITH TUMOR	11.8	Recurred/Progressed	Missing		Missing
TCGA-09-2048	63.13	DECEASED	IIIC	G3	1-10 mm	STABLE DISEASE	WITH TUMOR	4.49	Recurred/Progressed	Missing		Missing
TCGA-30-1857	64.91	DECEASED	IV	G3			WITH TUMOR	0.13	Recurred/Progressed	Missing		Missing
TCGA-24-2035	65.35	DECEASED	IIIC	G3	1-10 mm	PARTIAL RESPONSE	WITH TUMOR	28.1	Recurred/Progressed	9.41		Missing
TCGA-30-1862	65.47	DECEASED	IV	G2	>20mm		WITH TUMOR	6.07	Recurred/Progressed	Missing		Missing
TCGA-25-1625	66.57	DECEASED	IIIC	G3	1-10 mm	STABLE DISEASE	WITH TUMOR	27.54	Recurred/Progressed	17.25		Missing
TCGA-29-1690	66.62	DECEASED	IIIC	G2	11-20 mm		WITH TUMOR	47.48	Recurred/Progressed	Missing		Missing
TCGA-24-1604	67.04	DECEASED	IIIC	G3		COMPLETE RESPONSE	WITH TUMOR	88.1	Recurred/Progressed	Missing		Missing
TCGA-09-0367	67.05	DECEASED	IIIC	G3	1-10 mm	PROGRESSIVE DISEASE	WITH TUMOR	17.9	Recurred/Progressed	Missing		Missing
TCGA-30-1887	67.11	DECEASED	IIIC	G2	1-10 mm	PARTIAL RESPONSE	WITH TUMOR	24.2	Recurred/Progressed	Missing		Missing
TCGA-24-2020	67.62	DECEASED	IIIC	G3	1-10 mm	COMPLETE RESPONSE	WITH TUMOR	151.57	Recurred/Progressed	23.7		Missing
TCGA-24-2038	68.38	DECEASED	IIIA		1-10 mm	COMPLETE RESPONSE	WITH TUMOR	44.36	Recurred/Progressed	38.33		Missing
TCGA-10-0935	68.76	DECEASED	IIIC	G3	1-10 mm		WITH TUMOR	35.31	Recurred/Progressed	Missing		Missing
TCGA-10-0936	69.74	DECEASED	IIIC	G3	>20mm	PARTIAL RESPONSE	WITH TUMOR	36.82	Recurred/Progressed	Missing		Missing
TCGA-25-1871	70.21	DECEASED	IIIC	G3	11-20 mm	PROGRESSIVE DISEASE	WITH TUMOR	24.92	Recurred/Progressed	7.54		Missing
TCGA-24-2288	70.77	DECEASED	IIIC	G3	>20mm		WITH TUMOR	0.82	Recurred/Progressed	Missing		Missing
TCGA-10-0928	71.41	DECEASED	IIIC	G3	1-10 mm		WITH TUMOR	18.43	Recurred/Progressed	Missing		Missing
TCGA-13-0730	71.55	DECEASED	IIIC	G3	>20mm		WITH TUMOR	16.82	Recurred/Progressed	Missing		Missing
TCGA-61-1740	71.68	DECEASED	IIIC	G3	>20mm	PROGRESSIVE DISEASE	WITH TUMOR	2.62	Recurred/Progressed	Missing		Missing
TCGA-04-1343	72.41	DECEASED	IV	G3	>20mm	PROGRESSIVE DISEASE	WITH TUMOR	11.84	Recurred/Progressed	Missing		Missing
TCGA-23-1032	73.19	DECEASED	IV	G3	1-10 mm		WITH TUMOR	2.75	Recurred/Progressed	Missing		Missing
TCGA-25-1319	73.39	DECEASED	IIIC	G3	11-20 mm			64.82	Recurred/Progressed	23.93		Missing
TCGA-13-1409	73.63	LIVING	IIIC	G3	1-10 mm		WITH TUMOR	5.54	Recurred/Progressed	Missing		Missing
TCGA-04-1649	74.42	LIVING	IIIC	G3	1-10 mm			64.46	Recurred/Progressed	54.82		Missing
TCGA-61-2102	74.66	DECEASED	IIIC	G3			WITH TUMOR	6.56	Recurred/Progressed	Missing		Missing
TCGA-09-1661	75.38	DECEASED	IIIC	G3	1-10 mm	STABLE DISEASE	WITH TUMOR	37.41	Recurred/Progressed	Missing		Missing
TCGA-24-2261	76.43	DECEASED	IIIC	G3	11-20 mm		WITH TUMOR	0.79	Recurred/Progressed	Missing		Missing
TCGA-24-0966	78.14	LIVING	IIIC	G3	>20mm	STABLE DISEASE	WITH TUMOR	7.8	Recurred/Progressed	Missing		Missing
TCGA-04-1337	78.42	DECEASED	IIIC	G2	No Macroscopic disease		WITH TUMOR	2.03	Recurred/Progressed	Missing		Missing
TCGA-09-1674	79.12	LIVING	IIIC	G3	1-10 mm	COMPLETE RESPONSE	WITH TUMOR	8.52	Recurred/Progressed	Missing		Missing
TCGA-24-2026	79.59	DECEASED	IIIC	G3	>20mm		WITH TUMOR	34.72	Recurred/Progressed	Missing		Missing
TCGA-29-1761	80.38	DECEASED	IIIC	G3	>20mm	STABLE DISEASE	WITH TUMOR	17.31	Recurred/Progressed	Missing		Missing
TCGA-04-1342	80.82	DECEASED	IV	G2	>20mm	PROGRESSIVE DISEASE	WITH TUMOR	18.46	Recurred/Progressed	Missing		Missing
TCGA-25-1877	81.13	DECEASED	IIIC	G3	1-10 mm	COMPLETE RESPONSE	WITH TUMOR	23.93	Recurred/Progressed	18		Missing
TCGA-13-1411	81.84	LIVING	IIIC	G3	>20mm	PARTIAL RESPONSE	WITH TUMOR	4.2	Recurred/Progressed	Missing		Missing
TCGA-59-2350		DECEASED	IV	G3	1-10 mm	PARTIAL RESPONSE	WITH TUMOR	22.26	Recurred/Progressed	6.92		Missing
TCGA-59-2354		DECEASED	IIIC	G3	1-10 mm	STABLE DISEASE	WITH TUMOR	34.3	Recurred/Progressed	15.11		Missing
TCGA-59-2351		LIVING	IIIC	G3	1-10 mm	COMPLETE RESPONSE	TUMOR FREE	115.8	Recurred/Progressed	70.13		Missing
TCGA-59-2355		DECEASED	IV	G3	>20mm		WITH TUMOR	2.13	Recurred/Progressed	Missing		Missing
TCGA-59-2352		DECEASED	IIIC	G3			WITH TUMOR	8.2	Recurred/Progressed	Missing		Missing
TCGA-57-1582		DECEASED	IIIC	G3	1-10 mm	PROGRESSIVE DISEASE	WITH TUMOR	23.97	Recurred/Progressed	Missing		Missing
TCGA-04-1519	48.39		IIIC	G3						Missing		Missing
TCGA-57-1994										Missing		Missing
